<svg width="500" height="500" xmlns="http://www.w3.org/2000/svg">
 <!-- Created with Method Draw - http://github.com/duopixel/Method-Draw/ -->
 <g>
  <ellipse ry="240" rx="240" id="svg_2" cy="250.499645" cx="250" stroke-width="0" stroke="#000" fill="#666666"/>
  <ellipse fill-opacity="0" ry="48" rx="48" id="svg_3" cy="162.562823" cx="250" stroke-width="8" stroke="#333333" fill="#007f00"/>
  <ellipse fill-opacity="0" ry="32" rx="32" id="svg_4" cy="355.923907" cx="249.500359" stroke-width="8" stroke="#333333" fill="#007f00"/>
  <ellipse fill-opacity="0" ry="32" rx="32" id="svg_5" cy="308" cx="135" stroke-width="8" stroke="#333333" fill="#666666"/>
  <ellipse fill-opacity="0" ry="32" rx="32" id="svg_6" cy="307.500359" cx="364.834869" stroke-width="8" stroke="#333333" fill="#007f00"/>
  <line stroke-linecap="null" stroke-linejoin="null" id="svg_7" y2="281.477389" x2="155.318013" y1="201.035183" x1="219.771706" stroke-width="8" stroke="#333333" fill="none"/>
  <line stroke-linecap="null" stroke-linejoin="null" id="svg_8" y2="322.947595" x2="249.250527" y1="211.527645" x1="250.249809" stroke-width="8" stroke="#333333" fill="none"/>
  <line stroke-linecap="null" stroke-linejoin="null" id="svg_9" y2="280.977748" x2="343.682682" y1="201.035183" x1="280.727912" stroke-width="8" stroke="#333333" fill="none"/>
 </g>
</svg>
